{
  "content" : [ {
    "action" : "ADD",
    "explicitChange" : false,
    "id" : "1",
    "resourceFirst" : {
      "bool" : false,
      "longNumber" : 0,
      "meta" : { },
      "resourceCategory" : "INFRASTRUCTURE",
      "resourceDescription" : "JunitResource [text=r2, enumeration=null, date=null, integerNumber=null, longNumber=0, doubleNumber=null, floatNumber=null, bool=false, setDates=[], setDoubles=[], setEnumerations=[], setFloats=[], setLongs=[], setIntegers=[], setTexts=[]]",
      "resourceName" : "r2",
      "setDates" : [ ],
      "setDoubles" : [ ],
      "setEnumerations" : [ ],
      "setFloats" : [ ],
      "setIntegers" : [ ],
      "setLongs" : [ ],
      "setTexts" : [ ],
      "text" : "r2"
    },
    "resourceFirstType" : "Junit",
    "timestamp" : 946706400000,
    "txId" : "tx1",
    "type" : "RESOURCE",
    "userName" : "12345",
    "userType" : "USER"
  }, {
    "action" : "ADD",
    "explicitChange" : true,
    "id" : "0",
    "resourceFirst" : {
      "bool" : false,
      "longNumber" : 0,
      "meta" : { },
      "resourceCategory" : "INFRASTRUCTURE",
      "resourceDescription" : "JunitResource [text=r1, enumeration=null, date=null, integerNumber=null, longNumber=0, doubleNumber=null, floatNumber=null, bool=false, setDates=[], setDoubles=[], setEnumerations=[], setFloats=[], setLongs=[], setIntegers=[], setTexts=[]]",
      "resourceName" : "r1",
      "setDates" : [ ],
      "setDoubles" : [ ],
      "setEnumerations" : [ ],
      "setFloats" : [ ],
      "setIntegers" : [ ],
      "setLongs" : [ ],
      "setTexts" : [ ],
      "text" : "r1"
    },
    "resourceFirstType" : "Junit",
    "timestamp" : 946706400000,
    "txId" : "tx1",
    "type" : "RESOURCE",
    "userName" : "12345",
    "userType" : "USER"
  } ],
  "empty" : false,
  "first" : false,
  "last" : true,
  "number" : 1,
  "numberOfElements" : 2,
  "pageable" : {
    "offset" : 2,
    "pageNumber" : 1,
    "pageSize" : 2,
    "paged" : true,
    "sort" : {
      "empty" : false,
      "sorted" : true,
      "unsorted" : false
    },
    "unpaged" : false
  },
  "size" : 2,
  "sort" : {
    "empty" : false,
    "sorted" : true,
    "unsorted" : false
  },
  "totalElements" : 4,
  "totalPages" : 2
}