{
  "content" : [ {
    "action" : "UPDATE",
    "explicitChange" : false,
    "id" : "1",
    "resourceFirst" : {
      "bool" : false,
      "longNumber" : 0,
      "meta" : { },
      "resourceCategory" : "INFRASTRUCTURE",
      "resourceDescription" : "JunitResource [text=r1, enumeration=null, date=null, integerNumber=null, longNumber=0, doubleNumber=null, floatNumber=null, bool=false, setDates=[], setDoubles=[], setEnumerations=[], setFloats=[], setLongs=[], setIntegers=[], setTexts=[]]",
      "resourceName" : "r1",
      "setDates" : [ ],
      "setDoubles" : [ ],
      "setEnumerations" : [ ],
      "setFloats" : [ ],
      "setIntegers" : [ ],
      "setLongs" : [ ],
      "setTexts" : [ ],
      "text" : "r1"
    },
    "resourceFirstType" : "Junit",
    "resourceSecond" : {
      "bool" : false,
      "integerNumber" : 2,
      "longNumber" : 0,
      "meta" : { },
      "resourceCategory" : "INFRASTRUCTURE",
      "resourceDescription" : "JunitResource [text=r1, enumeration=null, date=null, integerNumber=2, longNumber=0, doubleNumber=null, floatNumber=null, bool=false, setDates=[], setDoubles=[], setEnumerations=[], setFloats=[], setLongs=[], setIntegers=[], setTexts=[]]",
      "resourceName" : "r1",
      "setDates" : [ ],
      "setDoubles" : [ ],
      "setEnumerations" : [ ],
      "setFloats" : [ ],
      "setIntegers" : [ ],
      "setLongs" : [ ],
      "setTexts" : [ ],
      "text" : "r1"
    },
    "resourceSecondType" : "Junit",
    "timestamp" : 957157200000,
    "txId" : "tx2",
    "type" : "RESOURCE",
    "userType" : "SYSTEM"
  }, {
    "action" : "ADD",
    "explicitChange" : true,
    "id" : "0",
    "resourceFirst" : {
      "bool" : false,
      "longNumber" : 0,
      "meta" : { },
      "resourceCategory" : "INFRASTRUCTURE",
      "resourceDescription" : "JunitResource [text=r3, enumeration=null, date=null, integerNumber=null, longNumber=0, doubleNumber=null, floatNumber=null, bool=false, setDates=[], setDoubles=[], setEnumerations=[], setFloats=[], setLongs=[], setIntegers=[], setTexts=[]]",
      "resourceName" : "r3",
      "setDates" : [ ],
      "setDoubles" : [ ],
      "setEnumerations" : [ ],
      "setFloats" : [ ],
      "setIntegers" : [ ],
      "setLongs" : [ ],
      "setTexts" : [ ],
      "text" : "r3"
    },
    "resourceFirstType" : "Junit",
    "timestamp" : 957157200000,
    "txId" : "tx2",
    "type" : "RESOURCE",
    "userType" : "SYSTEM"
  } ],
  "empty" : false,
  "first" : true,
  "last" : false,
  "number" : 0,
  "numberOfElements" : 2,
  "pageable" : {
    "offset" : 0,
    "pageNumber" : 0,
    "pageSize" : 2,
    "paged" : true,
    "sort" : {
      "empty" : false,
      "sorted" : true,
      "unsorted" : false
    },
    "unpaged" : false
  },
  "size" : 2,
  "sort" : {
    "empty" : false,
    "sorted" : true,
    "unsorted" : false
  },
  "totalElements" : 4,
  "totalPages" : 2
}