{
  "content" : [ {
    "applicationDefinition" : {
      "_nextAssetId" : 1,
      "assetsBundles" : [ ],
      "assetsPathAndContent" : [ ],
      "buildSteps" : [ ],
      "command" : null,
      "containerUsersToChangeId" : [ ],
      "copyWhenStartedPathAndContentFiles" : [ ],
      "entrypoint" : null,
      "environments" : { },
      "executeWhenStartedCommands" : [ ],
      "from" : "ubuntu:16.04",
      "hostToIpMapping" : [ ],
      "portsEndpoint" : { },
      "portsExposed" : { },
      "portsRedirect" : [ ],
      "runAs" : 70002,
      "services" : [ ],
      "udpPortsExposed" : { },
      "volumes" : [ ],
      "workingDirectory" : null
    },
    "description" : "Attached to machine f001",
    "domainNames" : [ ],
    "meta" : { },
    "name" : "f1",
    "resourceCategory" : "INFRASTRUCTURE",
    "resourceDescription" : "Attached to machine f001",
    "resourceEditorName" : null,
    "resourceName" : "f1"
  }, {
    "applicationDefinition" : {
      "_nextAssetId" : 1,
      "assetsBundles" : [ ],
      "assetsPathAndContent" : [ ],
      "buildSteps" : [ ],
      "command" : null,
      "containerUsersToChangeId" : [ ],
      "copyWhenStartedPathAndContentFiles" : [ ],
      "entrypoint" : null,
      "environments" : { },
      "executeWhenStartedCommands" : [ ],
      "from" : "ubuntu:16.04",
      "hostToIpMapping" : [ ],
      "portsEndpoint" : { },
      "portsExposed" : { },
      "portsRedirect" : [ ],
      "runAs" : 70001,
      "services" : [ ],
      "udpPortsExposed" : { },
      "volumes" : [ ],
      "workingDirectory" : null
    },
    "description" : "Attached to machine f001 and attaching another unixuser",
    "domainNames" : [ ],
    "meta" : { },
    "name" : "f1indirect",
    "resourceCategory" : "INFRASTRUCTURE",
    "resourceDescription" : "Attached to machine f001 and attaching another unixuser",
    "resourceEditorName" : null,
    "resourceName" : "f1indirect"
  }, {
    "applicationDefinition" : {
      "_nextAssetId" : 1,
      "assetsBundles" : [ ],
      "assetsPathAndContent" : [ ],
      "buildSteps" : [ ],
      "command" : null,
      "containerUsersToChangeId" : [ ],
      "copyWhenStartedPathAndContentFiles" : [ ],
      "entrypoint" : null,
      "environments" : { },
      "executeWhenStartedCommands" : [ ],
      "from" : "ubuntu:16.04",
      "hostToIpMapping" : [ ],
      "portsEndpoint" : { },
      "portsExposed" : { },
      "portsRedirect" : [ ],
      "runAs" : 70006,
      "services" : [ ],
      "udpPortsExposed" : { },
      "volumes" : [ ],
      "workingDirectory" : null
    },
    "description" : "Attached to machine f003",
    "domainNames" : [ ],
    "meta" : { },
    "name" : "f3",
    "resourceCategory" : "INFRASTRUCTURE",
    "resourceDescription" : "Attached to machine f003",
    "resourceEditorName" : null,
    "resourceName" : "f3"
  } ],
  "empty" : false,
  "first" : true,
  "last" : false,
  "number" : 0,
  "numberOfElements" : 3,
  "pageable" : {
    "offset" : 0,
    "pageNumber" : 0,
    "pageSize" : 3,
    "paged" : true,
    "sort" : {
      "empty" : false,
      "sorted" : true,
      "unsorted" : false
    },
    "unpaged" : false
  },
  "size" : 3,
  "sort" : {
    "empty" : false,
    "sorted" : true,
    "unsorted" : false
  },
  "totalElements" : 30,
  "totalPages" : 10
}