{
  "content" : [ {
    "bool" : false,
    "date" : null,
    "doubleNumber" : null,
    "enumeration" : "A",
    "floatNumber" : null,
    "integerNumber" : 1,
    "longNumber" : 0,
    "meta" : {
      "UI_OWNER" : "alpha"
    },
    "resourceCategory" : "INFRASTRUCTURE",
    "resourceDescription" : "JunitResource [text=www.example.com, enumeration=A, date=null, integerNumber=1, longNumber=0, doubleNumber=null, floatNumber=null, bool=false, setDates=[], setDoubles=[], setEnumerations=[], setFloats=[], setLongs=[], setIntegers=[], setTexts=[]]",
    "resourceEditorName" : null,
    "resourceName" : "www.example.com",
    "setDates" : [ ],
    "setDoubles" : [ ],
    "setEnumerations" : [ ],
    "setFloats" : [ ],
    "setIntegers" : [ ],
    "setLongs" : [ ],
    "setTexts" : [ ],
    "text" : "www.example.com"
  }, {
    "bool" : false,
    "date" : null,
    "doubleNumber" : null,
    "enumeration" : "A",
    "floatNumber" : null,
    "integerNumber" : 2,
    "longNumber" : 0,
    "meta" : {
      "UI_OWNER" : "alpha"
    },
    "resourceCategory" : "INFRASTRUCTURE",
    "resourceDescription" : "JunitResource [text=www.example.com, enumeration=A, date=null, integerNumber=2, longNumber=0, doubleNumber=null, floatNumber=null, bool=false, setDates=[], setDoubles=[], setEnumerations=[], setFloats=[], setLongs=[], setIntegers=[], setTexts=[]]",
    "resourceEditorName" : null,
    "resourceName" : "www.example.com",
    "setDates" : [ ],
    "setDoubles" : [ ],
    "setEnumerations" : [ ],
    "setFloats" : [ ],
    "setIntegers" : [ ],
    "setLongs" : [ ],
    "setTexts" : [ ],
    "text" : "www.example.com"
  }, {
    "bool" : false,
    "date" : null,
    "doubleNumber" : null,
    "enumeration" : "B",
    "floatNumber" : null,
    "integerNumber" : 3,
    "longNumber" : 0,
    "meta" : {
      "UI_OWNER" : "alpha"
    },
    "resourceCategory" : "INFRASTRUCTURE",
    "resourceDescription" : "JunitResource [text=example.com, enumeration=B, date=null, integerNumber=3, longNumber=0, doubleNumber=null, floatNumber=null, bool=false, setDates=[], setDoubles=[], setEnumerations=[], setFloats=[], setLongs=[], setIntegers=[], setTexts=[]]",
    "resourceEditorName" : null,
    "resourceName" : "example.com",
    "setDates" : [ ],
    "setDoubles" : [ ],
    "setEnumerations" : [ ],
    "setFloats" : [ ],
    "setIntegers" : [ ],
    "setLongs" : [ ],
    "setTexts" : [ ],
    "text" : "example.com"
  } ],
  "empty" : false,
  "first" : true,
  "last" : false,
  "number" : 0,
  "numberOfElements" : 3,
  "pageable" : {
    "offset" : 0,
    "pageNumber" : 0,
    "pageSize" : 3,
    "paged" : true,
    "sort" : {
      "empty" : false,
      "sorted" : true,
      "unsorted" : false
    },
    "unpaged" : false
  },
  "size" : 3,
  "sort" : {
    "empty" : false,
    "sorted" : true,
    "unsorted" : false
  },
  "totalElements" : 7,
  "totalPages" : 3
}