{
  "content" : [ {
    "bool" : false,
    "date" : null,
    "doubleNumber" : null,
    "enumeration" : "A",
    "floatNumber" : null,
    "integerNumber" : 1,
    "longNumber" : 0,
    "meta" : {
      "UI_OWNER" : "alpha"
    },
    "resourceCategory" : "INFRASTRUCTURE",
    "resourceDescription" : "JunitResource [text=www.example.com, enumeration=A, date=null, integerNumber=1, longNumber=0, doubleNumber=null, floatNumber=null, bool=false, setDates=[], setDoubles=[], setEnumerations=[], setFloats=[], setLongs=[], setIntegers=[], setTexts=[]]",
    "resourceEditorName" : null,
    "resourceName" : "www.example.com",
    "setDates" : [ ],
    "setDoubles" : [ ],
    "setEnumerations" : [ ],
    "setFloats" : [ ],
    "setIntegers" : [ ],
    "setLongs" : [ ],
    "setTexts" : [ ],
    "text" : "www.example.com"
  }, {
    "bool" : false,
    "date" : null,
    "doubleNumber" : null,
    "enumeration" : "A",
    "floatNumber" : null,
    "integerNumber" : 2,
    "longNumber" : 0,
    "meta" : {
      "UI_OWNER" : "alpha"
    },
    "resourceCategory" : "INFRASTRUCTURE",
    "resourceDescription" : "JunitResource [text=www.example.com, enumeration=A, date=null, integerNumber=2, longNumber=0, doubleNumber=null, floatNumber=null, bool=false, setDates=[], setDoubles=[], setEnumerations=[], setFloats=[], setLongs=[], setIntegers=[], setTexts=[]]",
    "resourceEditorName" : null,
    "resourceName" : "www.example.com",
    "setDates" : [ ],
    "setDoubles" : [ ],
    "setEnumerations" : [ ],
    "setFloats" : [ ],
    "setIntegers" : [ ],
    "setLongs" : [ ],
    "setTexts" : [ ],
    "text" : "www.example.com"
  }, {
    "bool" : true,
    "date" : 954565200000,
    "doubleNumber" : 77.6,
    "enumeration" : "B",
    "floatNumber" : 3.1,
    "integerNumber" : 80,
    "longNumber" : 4,
    "meta" : {
      "UI_OWNER" : "alpha"
    },
    "resourceCategory" : "INFRASTRUCTURE",
    "resourceDescription" : "JunitResource [text=zz, enumeration=B, date=Sat Apr 01 00:00:00 EST 2000, integerNumber=80, longNumber=4, doubleNumber=77.6, floatNumber=3.1, bool=true, setDates=[], setDoubles=[], setEnumerations=[], setFloats=[], setLongs=[], setIntegers=[], setTexts=[]]",
    "resourceEditorName" : null,
    "resourceName" : "zz",
    "setDates" : [ ],
    "setDoubles" : [ ],
    "setEnumerations" : [ ],
    "setFloats" : [ ],
    "setIntegers" : [ ],
    "setLongs" : [ ],
    "setTexts" : [ ],
    "text" : "zz"
  } ],
  "empty" : false,
  "first" : false,
  "last" : true,
  "number" : 1,
  "numberOfElements" : 3,
  "pageable" : {
    "offset" : 3,
    "pageNumber" : 1,
    "pageSize" : 3,
    "paged" : true,
    "sort" : {
      "empty" : false,
      "sorted" : true,
      "unsorted" : false
    },
    "unpaged" : false
  },
  "size" : 3,
  "sort" : {
    "empty" : false,
    "sorted" : true,
    "unsorted" : false
  },
  "totalElements" : 6,
  "totalPages" : 2
}